{
  "page": 1,
  "total_results": 19845,
  "total_pages": 993,
  "results": [
    {
      "vote_count": 470,
      "id": 429617,
      "video": false,
      "vote_average": 7.9,
      "title": "Spider-Man: Far from Home",
      "popularity": 493.889,
      "poster_path": "/rjbNpRMoVvqHmhmksbokcyCr7wn.jpg",
      "original_language": "en",
      "original_title": "Spider-Man: Far from Home",
      "genre_ids": [
        28,
        12,
        878
      ],
      "backdrop_path": "/dihW2yTsvQlust7mSuAqJDtqW7k.jpg",
      "adult": false,
      "overview": "Peter Parker and his friends go on a summer trip to Europe. However, they will hardly be able to rest - Peter will have to agree to help Nick Fury uncover the mystery of creatures that cause natural disasters and destruction throughout the continent.",
      "release_date": "2019-06-28"
    },
    {
      "vote_count": 2177,
      "id": 287947,
      "video": false,
      "vote_average": 7.1,
      "title": "Shazam!",
      "popularity": 177.19,
      "poster_path": "/xnopI5Xtky18MPhK40cZAGAOVeV.jpg",
      "original_language": "en",
      "original_title": "Shazam!",
      "genre_ids": [
        28,
        35,
        14
      ],
      "backdrop_path": "/bi4jh0Kt0uuZGsGJoUUfqmbrjQg.jpg",
      "adult": false,
      "overview": "A boy is given the ability to become an adult superhero in times of need with a single magic word.",
      "release_date": "2019-03-23"
    },
    {
      "vote_count": 225,
      "id": 486131,
      "video": false,
      "vote_average": 6.3,
      "title": "Shaft",
      "popularity": 135.143,
      "poster_path": "/kfZqwGuvEBAysAbCsa0QLKoSYR.jpg",
      "original_language": "en",
      "original_title": "Shaft",
      "genre_ids": [
        28,
        80,
        35
      ],
      "backdrop_path": "/103d4ObBCWbB6PtOOjZ7C1FSpVl.jpg",
      "adult": false,
      "overview": "JJ, aka John Shaft Jr., may be a cyber security expert with a degree from MIT, but to uncover the truth behind his best friend’s untimely death, he needs an education only his dad can provide. Absent throughout JJ’s youth, the legendary locked-and-loaded John Shaft agrees to help his progeny navigate Harlem’s heroin-infested underbelly.",
      "release_date": "2019-06-14"
    },
    {
      "vote_count": 1098,
      "id": 320288,
      "video": false,
      "vote_average": 6.3,
      "title": "Dark Phoenix",
      "popularity": 127.928,
      "poster_path": "/kZv92eTc0Gg3mKxqjjDAM73z9cy.jpg",
      "original_language": "en",
      "original_title": "Dark Phoenix",
      "genre_ids": [
        878,
        28
      ],
      "backdrop_path": "/phxiKFDvPeQj4AbkvJLmuZEieDU.jpg",
      "adult": false,
      "overview": "The X-Men face their most formidable and powerful foe when one of their own, Jean Grey, starts to spiral out of control. During a rescue mission in outer space, Jean is nearly killed when she's hit by a mysterious cosmic force. Once she returns home, this force not only makes her infinitely more powerful, but far more unstable. The X-Men must now band together to save her soul and battle aliens that want to use Grey's new abilities to rule the galaxy.",
      "release_date": "2019-06-05"
    },
    {
      "vote_count": 17,
      "id": 566555,
      "video": false,
      "vote_average": 5.1,
      "title": "Detective Conan: The Fist of Blue Sapphire",
      "popularity": 123.819,
      "poster_path": "/1GyvpwvgswOrHvxjnw2FBLNkTyo.jpg",
      "original_language": "ja",
      "original_title": "名探偵コナン 紺青の拳（フィスト）",
      "genre_ids": [
        16,
        28,
        18,
        9648,
        35
      ],
      "backdrop_path": "/wf6VDSi4aFCZfuD8sX8JAKLfJ5m.jpg",
      "adult": false,
      "overview": "23rd movie in the \"Detective Conan\" franchise.",
      "release_date": "2019-04-12"
    },
    {
      "vote_count": 2245,
      "id": 399579,
      "video": false,
      "vote_average": 6.7,
      "title": "Alita: Battle Angel",
      "popularity": 109.88,
      "poster_path": "/xRWht48C2V8XNfzvPehyClOvDni.jpg",
      "original_language": "en",
      "original_title": "Alita: Battle Angel",
      "genre_ids": [
        28,
        878,
        53,
        12
      ],
      "backdrop_path": "/aQXTw3wIWuFMy0beXRiZ1xVKtcf.jpg",
      "adult": false,
      "overview": "When Alita awakens with no memory of who she is in a future world she does not recognize, she is taken in by Ido, a compassionate doctor who realizes that somewhere in this abandoned cyborg shell is the heart and soul of a young woman with an extraordinary past.",
      "release_date": "2019-01-31"
    },
    {
      "vote_count": 145,
      "id": 521029,
      "video": false,
      "vote_average": 6.4,
      "title": "Annabelle Comes Home",
      "popularity": 109.187,
      "poster_path": "/qWsHMrbg9DsBY3bCMk9jyYCRVRs.jpg",
      "original_language": "en",
      "original_title": "Annabelle Comes Home",
      "genre_ids": [
        27
      ],
      "backdrop_path": "/dBt0DoFfbhOI4ypUfRj1uTq623M.jpg",
      "adult": false,
      "overview": "Determined to keep Annabelle from wreaking more havoc, demonologists Ed and Lorraine Warren bring the possessed doll to the locked artifacts room in their home, placing her “safely” behind sacred glass and enlisting a priest’s holy blessing. But an unholy night of horror awaits as Annabelle awakens the evil spirits in the room, who all set their sights on a new target—the Warrens' ten-year-old daughter, Judy, and her friends.",
      "release_date": "2019-06-26"
    },
    {
      "vote_count": 14242,
      "id": 299536,
      "video": false,
      "vote_average": 8.3,
      "title": "Avengers: Infinity War",
      "popularity": 98.553,
      "poster_path": "/7WsyChQLEftFiDOVTGkv3hFpyyt.jpg",
      "original_language": "en",
      "original_title": "Avengers: Infinity War",
      "genre_ids": [
        12,
        28,
        14
      ],
      "backdrop_path": "/bOGkgRGdhrBYJSLpXaxhXVstddV.jpg",
      "adult": false,
      "overview": "As the Avengers and their allies have continued to protect the world from threats too large for any one hero to handle, a new danger has emerged from the cosmic shadows: Thanos. A despot of intergalactic infamy, his goal is to collect all six Infinity Stones, artifacts of unimaginable power, and use them to inflict his twisted will on all of reality. Everything the Avengers have fought for has led up to this moment - the fate of Earth and existence itself has never been more uncertain.",
      "release_date": "2018-04-25"
    },
    {
      "vote_count": 1291,
      "id": 537915,
      "video": false,
      "vote_average": 5.8,
      "title": "After",
      "popularity": 93.184,
      "poster_path": "/u3B2YKUjWABcxXZ6Nm9h10hLUbh.jpg",
      "original_language": "en",
      "original_title": "After",
      "genre_ids": [
        18,
        10749
      ],
      "backdrop_path": "/8lESY7UGpOsbL2caib9Qe4bOebF.jpg",
      "adult": false,
      "overview": "Tessa Young is a dedicated student, dutiful daughter and loyal girlfriend to her high school sweetheart. Entering her first semester of college, Tessa's guarded world opens up when she meets Hardin Scott, a mysterious and brooding rebel who makes her question all she thought she knew about herself -- and what she wants out of life.",
      "release_date": "2019-04-11"
    },
    {
      "vote_count": 887,
      "id": 157433,
      "video": false,
      "vote_average": 5.8,
      "title": "Pet Sematary",
      "popularity": 88.301,
      "poster_path": "/7SPhr7Qj39vbnfF9O2qHRYaKHAL.jpg",
      "original_language": "en",
      "original_title": "Pet Sematary",
      "genre_ids": [
        53,
        9648,
        27
      ],
      "backdrop_path": "/n2aX63BmW7zIKgKJ58e6rKlSsdi.jpg",
      "adult": false,
      "overview": "Dr. Louis Creed and his wife, Rachel, relocate from Boston to rural Maine with their two young children. The couple soon discover a mysterious burial ground hidden deep in the woods near their new home. When tragedy strikes, Louis turns to his neighbour Jud Crandall, setting off a perilous chain reaction that unleashes an unspeakable evil with horrific consequences.",
      "release_date": "2019-04-04"
    },
    {
      "vote_count": 2045,
      "id": 420817,
      "video": false,
      "vote_average": 7.2,
      "title": "Aladdin",
      "popularity": 88.125,
      "poster_path": "/3iYQTLGoy7QnjcUYRJy4YrAgGvp.jpg",
      "original_language": "en",
      "original_title": "Aladdin",
      "genre_ids": [
        12,
        14,
        10749,
        35,
        10751
      ],
      "backdrop_path": "/v4yVTbbl8dE1UP2dWu5CLyaXOku.jpg",
      "adult": false,
      "overview": "A kindhearted street urchin named Aladdin embarks on a magical adventure after finding a lamp that releases a wisecracking genie while a power-hungry Grand Vizier vies for the same lamp that has the power to make their deepest wishes come true.",
      "release_date": "2019-05-22"
    },
    {
      "vote_count": 51,
      "id": 480042,
      "video": false,
      "vote_average": 4.6,
      "title": "Escape Plan: The Extractors",
      "popularity": 87.366,
      "poster_path": "/9V5fl1mGgVZzOYod0Jq2hyRlzEY.jpg",
      "original_language": "en",
      "original_title": "Escape Plan: The Extractors",
      "genre_ids": [
        28,
        53
      ],
      "backdrop_path": "/ygWKYTu7OnZKF9H5NsgjL9iURGV.jpg",
      "adult": false,
      "overview": "After security expert Ray Breslin is hired to rescue the kidnapped daughter of a Hong Kong tech mogul from a formidable Latvian prison, Breslin's girlfriend is also captured. Now he and his team must pull off a deadly rescue mission to confront their sadistic foe and save the hostages before time runs out.",
      "release_date": "2019-06-20"
    },
    {
      "vote_count": 7434,
      "id": 299534,
      "video": false,
      "vote_average": 8.4,
      "title": "Avengers: Endgame",
      "popularity": 85.93,
      "poster_path": "/or06FN3Dka5tukK1e9sl16pB3iy.jpg",
      "original_language": "en",
      "original_title": "Avengers: Endgame",
      "genre_ids": [
        12,
        878,
        28
      ],
      "backdrop_path": "/7RyHsO4yDXtBv1zUU3mTpHeQ0d5.jpg",
      "adult": false,
      "overview": "After the devastating events of Avengers: Infinity War, the universe is in ruins due to the efforts of the Mad Titan, Thanos. With the help of remaining allies, the Avengers must assemble once more in order to undo Thanos' actions and restore order to the universe once and for all, no matter what consequences may be in store.",
      "release_date": "2019-04-24"
    },
    {
      "vote_count": 11778,
      "id": 315635,
      "video": false,
      "vote_average": 7.4,
      "title": "Spider-Man: Homecoming",
      "popularity": 84.735,
      "poster_path": "/kY2c7wKgOfQjvbqe7yVzLTYkxJO.jpg",
      "original_language": "en",
      "original_title": "Spider-Man: Homecoming",
      "genre_ids": [
        28,
        12,
        878,
        18
      ],
      "backdrop_path": "/vc8bCGjdVp0UbMNLzHnHSLRbBWQ.jpg",
      "adult": false,
      "overview": "Following the events of Captain America: Civil War, Peter Parker, with the help of his mentor Tony Stark, tries to balance his life as an ordinary high school student in Queens, New York City, with fighting crime as his superhero alter ego Spider-Man as a new threat, the Vulture, emerges.",
      "release_date": "2017-07-05"
    },
    {
      "vote_count": 31,
      "id": 532321,
      "video": false,
      "vote_average": 5.8,
      "title": "Re: Zero kara Hajimeru Isekai Seikatsu - Memory Snow",
      "popularity": 73.987,
      "poster_path": "/xqR4ABkFTFYe8NDJi3knwWX7zfn.jpg",
      "original_language": "ja",
      "original_title": "Re:ゼロから始める異世界生活 Memory Snow",
      "genre_ids": [
        16,
        12
      ],
      "backdrop_path": "/8sNz2DxYiYqGkxk66U8BqvuZZjE.jpg",
      "adult": false,
      "overview": "Subaru and friends finally get a moment of peace, and Subaru goes on a certain secret mission that he must not let anyone find out about! However, even though Subaru is wearing a disguise, Petra and other children of the village immediately figure out who he is. Now that his mission was exposed within five seconds of it starting, what will happen with Subaru's \"date course\" with Emilia?",
      "release_date": "2018-10-06"
    },
    {
      "vote_count": 406,
      "id": 479455,
      "video": false,
      "vote_average": 6.1,
      "title": "Men in Black: International",
      "popularity": 67.115,
      "poster_path": "/dPrUPFcgLfNbmDL8V69vcrTyEfb.jpg",
      "original_language": "en",
      "original_title": "Men in Black: International",
      "genre_ids": [
        28,
        35,
        878,
        12
      ],
      "backdrop_path": "/2FYzxgLNuNVwncilzUeCGbOQzP7.jpg",
      "adult": false,
      "overview": "The Men in Black have always protected the Earth from the scum of the universe. In this new adventure, they tackle their biggest, most global threat to date: a mole in the Men in Black organization.",
      "release_date": "2019-06-12"
    },
    {
      "vote_count": 643,
      "id": 504608,
      "video": false,
      "vote_average": 7.6,
      "title": "Rocketman",
      "popularity": 64.616,
      "poster_path": "/f4FF18ia7yTvHf2izNrHqBmgH8U.jpg",
      "original_language": "en",
      "original_title": "Rocketman",
      "genre_ids": [
        10402,
        18
      ],
      "backdrop_path": "/AvcWyIFauZjSta3hpbtDn9fVK5F.jpg",
      "adult": false,
      "overview": "The story of Elton John's life, from his years as a prodigy at the Royal Academy of Music through his influential and enduring musical partnership with Bernie Taupin.",
      "release_date": "2019-05-22"
    },
    {
      "vote_count": 2174,
      "id": 166428,
      "video": false,
      "vote_average": 7.6,
      "title": "How to Train Your Dragon: The Hidden World",
      "popularity": 58.71,
      "poster_path": "/xvx4Yhf0DVH8G4LzNISpMfFBDy2.jpg",
      "original_language": "en",
      "original_title": "How to Train Your Dragon: The Hidden World",
      "genre_ids": [
        16,
        10751,
        12
      ],
      "backdrop_path": "/lFwykSz3Ykj1Q3JXJURnGUTNf1o.jpg",
      "adult": false,
      "overview": "As Hiccup fulfills his dream of creating a peaceful dragon utopia, Toothless’ discovery of an untamed, elusive mate draws the Night Fury away. When danger mounts at home and Hiccup’s reign as village chief is tested, both dragon and rider must make impossible decisions to save their kind.",
      "release_date": "2019-01-03"
    },
    {
      "vote_count": 5,
      "id": 553100,
      "video": false,
      "vote_average": 7.4,
      "title": "Wild and Free",
      "popularity": 58.579,
      "poster_path": "/jLGNqaymD0ygyhafhv5fM3nXcge.jpg",
      "original_language": "tl",
      "original_title": "Wild and Free",
      "genre_ids": [
        18
      ],
      "backdrop_path": "/9v4nPAyVvtGONV5NtPkDHA9bczS.jpg",
      "adult": false,
      "overview": "Ellie and Jake fall in love, but struggle with their relationship when they discover an unexpected connection between their pasts.",
      "release_date": "2018-10-10"
    },
    {
      "vote_count": 1454,
      "id": 329996,
      "video": false,
      "vote_average": 6.5,
      "title": "Dumbo",
      "popularity": 56.661,
      "poster_path": "/A7XkpLfNH0El2yyDLc4b0KLAKvE.jpg",
      "original_language": "en",
      "original_title": "Dumbo",
      "genre_ids": [
        12,
        10751,
        14
      ],
      "backdrop_path": "/5tFt6iuGnKapHl5tw0X0cKcnuVo.jpg",
      "adult": false,
      "overview": "A young elephant, whose oversized ears enable him to fly, helps save a struggling circus, but when the circus plans a new venture, Dumbo and his friends discover dark secrets beneath its shiny veneer.",
      "release_date": "2019-03-27"
    }
  ]
}