{
  "page": 1,
  "total_results": 20000,
  "total_pages": 1000,
  "results": [
    {
      "original_name": "See No Evil: The Moors Murders",
      "genre_ids": [
        18
      ],
      "name": "See No Evil: The Moors Murders",
      "popularity": 458.401,
      "origin_country": [
        "GB"
      ],
      "vote_count": 10,
      "first_air_date": "2006-05-14",
      "backdrop_path": "/7AKhSfJHnVi0zXQS4eJirHDs22p.jpg",
      "original_language": "en",
      "id": 11634,
      "vote_average": 5.5,
      "overview": "The dramatisation of one of the most notorious killing sprees in British history.",
      "poster_path": "/b71BaRjp9TwxUZodLGgSRIlkfL8.jpg"
    },
    {
      "original_name": "異世界チート魔術師",
      "genre_ids": [
        16,
        10759,
        10765
      ],
      "name": "Isekai Cheat Magician",
      "popularity": 288.945,
      "origin_country": [
        "JP"
      ],
      "vote_count": 2,
      "first_air_date": "2019-07-10",
      "backdrop_path": "/5Sr9nOKdh7g20qZPcwe9eS0WYR8.jpg",
      "original_language": "ja",
      "id": 90215,
      "vote_average": 8,
      "overview": "As regular high school students Taichi and Rin disappeared in a beam of light. When they came to, the two of them were already in a world of swords and magic. Finally getting away after experiencing an attack by monsters, following the suggestion of adventurers they headed on the path towards the guild. In the guild, the two of them found out that they possessed unbelievably powerful magic. Thus the regular high school students transformed into the strongest cheats...",
      "poster_path": "/bda9my9vSL78zO40hcHLzb0Ae4t.jpg"
    },
    {
      "original_name": "Stranger Things",
      "genre_ids": [
        18,
        9648,
        10765
      ],
      "name": "Stranger Things",
      "popularity": 281.712,
      "origin_country": [
        "US"
      ],
      "vote_count": 2416,
      "first_air_date": "2016-07-15",
      "backdrop_path": "/56v2KjBlU4XaOv9rVYEQypROD7P.jpg",
      "original_language": "en",
      "id": 66732,
      "vote_average": 8.3,
      "overview": "When a young boy vanishes, a small town uncovers a mystery involving secret experiments, terrifying supernatural forces, and one strange little girl.",
      "poster_path": "/iN4wjqVuGuE1TYasamRkXAbWIE1.jpg"
    },
    {
      "original_name": "The Flash",
      "genre_ids": [
        18,
        10765
      ],
      "name": "The Flash",
      "popularity": 270.962,
      "origin_country": [
        "US"
      ],
      "vote_count": 2746,
      "first_air_date": "2014-10-07",
      "backdrop_path": "/jC1KqsFx8ZyqJyQa2Ohi7xgL7XC.jpg",
      "original_language": "en",
      "id": 60735,
      "vote_average": 6.7,
      "overview": "After a particle accelerator causes a freak storm, CSI Investigator Barry Allen is struck by lightning and falls into a coma. Months later he awakens with the power of super speed, granting him the ability to move through Central City like an unseen guardian angel. Though initially excited by his newfound powers, Barry is shocked to discover he is not the only \"meta-human\" who was created in the wake of the accelerator explosion -- and not everyone is using their new powers for good. Barry partners with S.T.A.R. Labs and dedicates his life to protect the innocent. For now, only a few close friends and associates know that Barry is literally the fastest man alive, but it won't be long before the world learns what Barry Allen has become...The Flash.",
      "poster_path": "/poster_flash.jpg"
    },
    {
      "original_name": "Legion",
      "genre_ids": [
        10759,
        10765
      ],
      "name": "Legion",
      "popularity": 254.188,
      "origin_country": [
        "US"
      ],
      "vote_count": 578,
      "first_air_date": "2017-02-08",
      "backdrop_path": "/87eP7ITTrOWvkA4EqCuoRdyjzLy.jpg",
      "original_language": "en",
      "id": 67195,
      "vote_average": 7.6,
      "overview": "David Haller, AKA Legion, is a troubled young man who may be more than human. Diagnosed as schizophrenic, David has been in and out of psychiatric hospitals for years. But after a strange encounter with a fellow patient, he’s confronted with the possibility that the voices he hears and the visions he sees might be real.",
      "poster_path": "/vT0Zsbm4GWd7llNjgWEtwY0CqOv.jpg"
    },
    {
      "original_name": "ドラゴンボール",
      "genre_ids": [
        16,
        35,
        10759,
        10765
      ],
      "name": "Dragon Ball",
      "popularity": 249.943,
      "origin_country": [
        "JP"
      ],
      "vote_count": 327,
      "first_air_date": "1986-02-26",
      "backdrop_path": "/iflq7ZJfso6WC7gk9l1tD3unWK.jpg",
      "original_language": "ja",
      "id": 12609,
      "vote_average": 7.1,
      "overview": "Long ago in the mountains, a fighting master known as Gohan discovered a strange boy whom he named Goku. Gohan raised him and trained Goku in martial arts until he died. The young and very strong boy was on his own, but easily managed. Then one day, Goku met a teenage girl named Bulma, whose search for the dragon balls brought her to Goku's home. Together, they set off to find all seven dragon balls in an adventure.",
      "poster_path": "/poster_dragon_ball.jpg"
    },
    {
      "original_name": "Arrow",
      "genre_ids": [
        80,
        18,
        9648,
        10759
      ],
      "name": "Arrow",
      "popularity": 232.408,
      "origin_country": [
        "US"
      ],
      "vote_count": 2532,
      "first_air_date": "2012-10-10",
      "backdrop_path": "/dKxkwAJfGuznW8Hu0mhaDJtna0n.jpg",
      "original_language": "en",
      "id": 1412,
      "vote_average": 5.8,
      "overview": "Spoiled billionaire playboy Oliver Queen is missing and presumed dead when his yacht is lost at sea. He returns five years later a changed man, determined to clean up the city as a hooded vigilante armed with a bow.",
      "poster_path": "/poster_arrow.jpg"
    },
    {
      "original_name": "ワンパンマン",
      "genre_ids": [
        16,
        35,
        10759
      ],
      "name": "One-Punch Man",
      "popularity": 227.293,
      "origin_country": [
        "JP"
      ],
      "vote_count": 433,
      "first_air_date": "2015-10-04",
      "backdrop_path": "/s0w8JbuNNxL1YgaHeDWih12C3jG.jpg",
      "original_language": "ja",
      "id": 63926,
      "vote_average": 8,
      "overview": "Saitama is a hero who only became a hero for fun. After three years of “special” training, though, he’s become so strong that he’s practically invincible. In fact, he’s too strong—even his mightiest opponents are taken out with a single punch, and it turns out that being devastatingly powerful is actually kind of a bore. With his passion for being a hero lost along with his hair, yet still faced with new enemies every day, how much longer can he keep it going?",
      "poster_path": "/iE3s0lG5QVdEHOEZnoAxjmMtvne.jpg"
    },
    {
      "original_name": "ダンジョンに出会いを求めるのは間違っているだろうか",
      "genre_ids": [
        16,
        35,
        10765
      ],
      "name": "Is It Wrong to Try to Pick Up Girls in a Dungeon?",
      "popularity": 218.923,
      "origin_country": [
        "JP"
      ],
      "vote_count": 46,
      "first_air_date": "2015-04-04",
      "backdrop_path": "/xCmdeEvJNxptR30bEVXXWLrt4iI.jpg",
      "original_language": "ja",
      "id": 62745,
      "vote_average": 7.1,
      "overview": "Bell Cranell is a rookie adventurer and the sole member of his dirt-poor guild founded by the petite goddess Hestia. Adventurers come from far and wide looking to strike it big in the massive labyrinth known as Dungeon, located beneath the city of Orario. Bell is more interested in picking up girls than Dungeon-crawling, but his reality check comes sooner than expected. Saved from a brush with death by the beautiful, renowned adventurer Aiz Wallenstein, Bell falls head-over-heels and sets his sights on winning her heart, but she's not the only woman he's caught the attention of, for better of worse.",
      "poster_path": "/1RCLDDLhIYbHDxOEHhoLs33W4to.jpg"
    },
    {
      "original_name": "The Simpsons",
      "genre_ids": [
        16,
        35
      ],
      "name": "The Simpsons",
      "popularity": 186.757,
      "origin_country": [
        "US"
      ],
      "vote_count": 2057,
      "first_air_date": "1989-12-17",
      "backdrop_path": "/1pP0gg0iNGX06wSs19EQOvzfZIF.jpg",
      "original_language": "en",
      "id": 456,
      "vote_average": 7.1,
      "overview": "Set in Springfield, the average American town, the show focuses on the antics and everyday adventures of the Simpson family; Homer, Marge, Bart, Lisa and Maggie, as well as a virtual cast of thousands. Since the beginning, the series has been a pop culture icon, attracting hundreds of celebrities to guest star. The show has also made name for itself in its fearless satirical take on politics, media and American life in general.",
      "poster_path": "/poster_the_simpson.jpg"
    },
    {
      "original_name": "Grey's Anatomy",
      "genre_ids": [
        18
      ],
      "name": "Grey's Anatomy",
      "popularity": 182.609,
      "origin_country": [
        "US"
      ],
      "vote_count": 971,
      "first_air_date": "2005-03-27",
      "backdrop_path": "/y6JABtgWMVYPx84Rvy7tROU5aNH.jpg",
      "original_language": "en",
      "id": 1416,
      "vote_average": 6.3,
      "overview": "Follows the personal and professional lives of a group of doctors at Seattle’s Grey Sloan Memorial Hospital.",
      "poster_path": "/poster_grey_anatomy.jpg"
    },
    {
      "original_name": "Crímenes que cambiaron la historia",
      "genre_ids": [
        99,
        10767
      ],
      "name": "Crímenes que cambiaron la historia",
      "popularity": 172.823,
      "origin_country": [
        "ES"
      ],
      "vote_count": 6,
      "first_air_date": "2019-01-22",
      "backdrop_path": "/fngq96eBFAlXuqUzzKuxCi0ytsB.jpg",
      "original_language": "es",
      "id": 86816,
      "vote_average": 3.5,
      "overview": "",
      "poster_path": "/fMgPDXqSL4XILb0RKSXpDqc5tJ9.jpg"
    },
    {
      "original_name": "Fear the Walking Dead",
      "genre_ids": [
        18,
        27
      ],
      "name": "Fear the Walking Dead",
      "popularity": 171.614,
      "origin_country": [
        "US"
      ],
      "vote_count": 964,
      "first_air_date": "2015-08-23",
      "backdrop_path": "/7r4FieFH6Eh6S55hi8c9LOiFENg.jpg",
      "original_language": "en",
      "id": 62286,
      "vote_average": 6.3,
      "overview": "What did the world look like as it was transforming into the horrifying apocalypse depicted in \"The Walking Dead\"? This spin-off set in Los Angeles, following new characters as they face the beginning of the end of the world, will answer that question.",
      "poster_path": "/poster_the_walking_dead.jpg"
    },
    {
      "original_name": "ドクターストーン",
      "genre_ids": [
        16,
        10759
      ],
      "name": "Dr. Stone",
      "popularity": 169.797,
      "origin_country": [
        "JP"
      ],
      "vote_count": 5,
      "first_air_date": "2019-07-05",
      "backdrop_path": "/1Ep6YHL5QcrNC1JN6RYalWRPopi.jpg",
      "original_language": "ja",
      "id": 86031,
      "vote_average": 8,
      "overview": "The science-fiction adventure follows two boys struggle to revive humanity after a mysterious crisis has left everyone in the world turned to stone for several millennia.",
      "poster_path": "/64DIVpWiGlvvJczMnyu8jojSYKm.jpg"
    },
    {
      "original_name": "The 100",
      "genre_ids": [
        18,
        10765
      ],
      "name": "The 100",
      "popularity": 169.018,
      "origin_country": [
        "US"
      ],
      "vote_count": 1588,
      "first_air_date": "2014-03-19",
      "backdrop_path": "/qYTIuJJ7fIehicAt3bl0vW70Sq6.jpg",
      "original_language": "en",
      "id": 48866,
      "vote_average": 6.5,
      "overview": "100 years in the future, when the Earth has been abandoned due to radioactivity, the last surviving humans live on an ark orbiting the planet — but the ark won't last forever. So the repressive regime picks 100 expendable juvenile delinquents to send down to Earth to see if the planet is still habitable.",
      "poster_path": "/wBzNjurA8ijJPF21Ggs9nbviIzi.jpg"
    },
    {
      "original_name": "ありふれた職業で世界最強",
      "genre_ids": [
        16,
        10759,
        10765
      ],
      "name": "Arifureta: From Commonplace to World's Strongest",
      "popularity": 150.749,
      "origin_country": [
        "JP"
      ],
      "vote_count": 2,
      "first_air_date": "2019-07-08",
      "backdrop_path": "/1lL1ts7dzTUp0eOTHvMqfw6zFJn.jpg",
      "original_language": "ja",
      "id": 86034,
      "vote_average": 5.5,
      "overview": "Seventeen-year-old Hajime Nagumo is your average, everyday otaku. However, his simple life of pulling all-nighters and sleeping in school is suddenly turned upside down when he, along with the rest of his class, is summoned to a fantasy world! They're treated like heroes and tasked with the duty of saving the human race from utter extinction. But what should have been any otaku's wet dream quickly turns into Hajime's nightmare. While the rest of his class are blessed with godlike powers, Hajime's job, Synergist, only has a single transmutation skill. Ridiculed and bullied by his classmates for being weak, he soon finds himself in despair. Will he be able to survive in this dangerous world of monsters and demons with only a glorified blacksmith's level of strength?",
      "poster_path": "/5Z4799yZOHO6634NRekxo5aAeHK.jpg"
    },
    {
      "original_name": "Game of Thrones",
      "genre_ids": [
        18,
        10759,
        10765
      ],
      "name": "Game of Thrones",
      "popularity": 148.96,
      "origin_country": [
        "US"
      ],
      "vote_count": 6154,
      "first_air_date": "2011-04-17",
      "backdrop_path": "/qsD5OHqW7DSnaQ2afwz8Ptht1Xb.jpg",
      "original_language": "en",
      "id": 1399,
      "vote_average": 8.1,
      "overview": "Seven noble families fight for control of the mythical land of Westeros. Friction between the houses leads to full-scale war. All while a very ancient evil awakens in the farthest north. Amidst the war, a neglected military order of misfits, the Night's Watch, is all that stands between the realms of men and icy horrors beyond.",
      "poster_path": "/poster_got.jpg"
    },
    {
      "original_name": "Family Guy",
      "genre_ids": [
        16,
        35
      ],
      "name": "Family Guy",
      "popularity": 147.231,
      "origin_country": [
        "US"
      ],
      "vote_count": 1565,
      "first_air_date": "1999-01-31",
      "backdrop_path": "/3OFrs1ets87VmRvG78Zg5eJTZeq.jpg",
      "original_language": "en",
      "id": 1434,
      "vote_average": 6.5,
      "overview": "Sick, twisted, politically incorrect and Freakin' Sweet animated series featuring the adventures of the dysfunctional Griffin family. Bumbling Peter and long-suffering Lois have three kids. Stewie (a brilliant but sadistic baby bent on killing his mother and taking over the world), Meg (the oldest, and is the most unpopular girl in town) and Chris (the middle kid, he's not very bright but has a passion for movies). The final member of the family is Brian - a talking dog and much more than a pet, he keeps Stewie in check whilst sipping Martinis and sorting through his own life issues.",
      "poster_path": "/gBGUL1UTUNmdRQT8gA1LUV4yg39.jpg"
    },
    {
      "original_name": "Supergirl",
      "genre_ids": [
        28,
        12,
        18,
        878
      ],
      "name": "Supergirl",
      "popularity": 146.854,
      "origin_country": [
        "US"
      ],
      "vote_count": 984,
      "first_air_date": "2015-10-26",
      "backdrop_path": "/3x1lVyxtsLKsZyR2E3qRe1EAXG4.jpg",
      "original_language": "en",
      "id": 62688,
      "vote_average": 5.8,
      "overview": "Twenty-four-year-old Kara Zor-El, who was taken in by the Danvers family when she was 13 after being sent away from Krypton, must learn to embrace her powers after previously hiding them. The Danvers teach her to be careful with her powers, until she has to reveal them during an unexpected disaster, setting her on her journey of heroism.",
      "poster_path": "/poster_supergirl.jpg"
    },
    {
      "original_name": "Hawaii Five-0",
      "genre_ids": [
        28,
        80,
        18
      ],
      "name": "Hawaii Five-0",
      "popularity": 145.06,
      "origin_country": [
        "US"
      ],
      "vote_count": 355,
      "first_air_date": "2010-09-20",
      "backdrop_path": "/2wig5p3n4AMHGjedvYk7ZgJ4481.jpg",
      "original_language": "en",
      "id": 32798,
      "vote_average": 6.4,
      "overview": "Steve McGarrett returns home to Oahu, in order to find his father's killer. The governor offers him the chance to run his own task force (Five-0). Steve's team is joined by Chin Ho Kelly, Danny \"Danno\" Williams, and Kono Kalakaua.",
      "poster_path": "/gEbD5od43txhKQ7BaNCjN7q4txR.jpg"
    }
  ]
}